"2490c4ffbf19ede1ce08438406c62133b1d57b16  src/or/tor_main.c\n"
"dffdce63b5197f941a9eaa6213367dc92669038d  src/or/addressmap.c\n"
"3559c51107351aa2dd0eec2ea7868009242bb468  src/or/buffers.c\n"
"e6dbd33b4bfed0ab93c064d1e00257a9e4fd0205  src/or/channel.c\n"
"9eec4d1b587093cb2fa26f3a72067245ba3fee43  src/or/channeltls.c\n"
"e7ce2a2bea278d651102f18ec0409da2abb2d14a  src/or/circpathbias.c\n"
"57981a0f8f4f86ba9d3ea8f3481668fb76b5e405  src/or/circuitbuild.c\n"
"c19733acf96b05f7cc37193089da1db9ddb14a24  src/or/circuitlist.c\n"
"491c6fb92ffdc81b8df75ec553208a627d744a53  src/or/circuitmux.c\n"
"d4ad2888c3101581cf4544750370f2cd3cf94fdd  src/or/circuitmux_ewma.c\n"
"7ea48c0e1c46e350d9cc04de3d0ec1c864b5f676  src/or/circuitstats.c\n"
"8d821a42c833132db53b4ca23fd4f21ac6e41add  src/or/circuituse.c\n"
"ab2f6f7c588aaf6e0acceb61206a07462d2b0eaf  src/or/command.c\n"
"ef72eadecdfcb5ca1a111c2e2e9c61d4c53a954b  src/or/config.c\n"
"c086c476b2eb3f7402af9a0cce916698e3f3ddca  src/or/confparse.c\n"
"b666b17b34afe9e407766659acb32472ebda1a18  src/or/connection.c\n"
"4354befbddcb7324faa6b1b586fec8d44f55cc48  src/or/connection_edge.c\n"
"3e7d5afca47799d1567f7ada97b05617707c103a  src/or/connection_or.c\n"
"12ec53c928ab9359affd3b0ed7da206abb284d9d  src/or/control.c\n"
"26da4b7aa6ece88f530036e0c7af8831dd914e81  src/or/cpuworker.c\n"
"22503a699d6eb6c421c214d284ca7ce3da6c7f6c  src/or/directory.c\n"
"e2a2604d70d2e75c7c3a415fc2e8817cadbb2ada  src/or/dirserv.c\n"
"cfec2f7ec343d354e6d3144cfefa2e6cec524706  src/or/dirvote.c\n"
"81a58943027312a4e5f06d2cef1198601b9fb245  src/or/dns.c\n"
"2eee7d9c28f237e7a40acf749e1b3a1c1dc6de7d  src/or/dnsserv.c\n"
"e5c6da5c0eb4b4214e6365b83fb5483d2d234cef  src/or/fp_pair.c\n"
"fc133f573a2e52bb445147685d359bd55219ec1b  src/or/geoip.c\n"
"7bc19c39392e41377e0524d3c165f081fd333725  src/or/entrynodes.c\n"
"8300e16ef71e078ef4ad00360a77ed89333ea565  src/or/ext_orport.c\n"
"9f0b32ce2c50b22e099d54c6cf33c7900cedf484  src/or/hibernate.c\n"
"8f07c081172afc84d45ed1ada02df93756eac14f  src/or/onion_main.c\n"
"602977547b2ba230a433e01ac194e44e7b077a13  src/or/microdesc.c\n"
"af3380f978a1a2e2378a435cee1b19db733c7345  src/or/networkstatus.c\n"
"ef17bdfd659b1948654d880f88565267c7deaf20  src/or/nodelist.c\n"
"ad4fd89352aee29af8da07d55cac60958f5c9d81  src/or/onion.c\n"
"5c1d8796ff4485027bc2525ffd69b23997f03a2a  src/or/onion_fast.c\n"
"ba45a56d4cda342715a9fb81dcef3041aa9801c9  src/or/onion_tap.c\n"
"60d6b828f4b278580e1ea681b4328828cdf7ea6c  src/or/transports.c\n"
"857f07954edd7a226b7f0810da505df87a87582b  src/or/policies.c\n"
"4871aac26b19baa07dd6904c48dfd75234e114d7  src/or/reasons.c\n"
"2696f0379de941f5c65bf79888980863b36240c6  src/or/relay.c\n"
"46e8f23b6743db4782c20f3a0d9371dd0f6f6565  src/or/rendclient.c\n"
"759e931e7d4d84658ebf82cf6aa5c80c59f00a2e  src/or/rendcommon.c\n"
"34602ab4fa5afc5317bb576cf673137cf8cb4ab3  src/or/rendmid.c\n"
"875f59ae6cf05276ccbba942c4e9626015fe3592  src/or/rendservice.c\n"
"c693d905d4d0ddbeb09adaa6578e3541c7e2043f  src/or/rephist.c\n"
"d58afa23a92c38557b8b57084fe70c919869ca89  src/or/replaycache.c\n"
"c06bbc01b893714ac7519258eccd6c5372aa59b6  src/or/router.c\n"
"b1e4ef1d9f345a1c7fb73f6f16b60f847b2731aa  src/or/routerlist.c\n"
"f707d41dd2dfe641a5f5196b8499d39dbe8e534d  src/or/routerparse.c\n"
"a1d43f45a49918eb613e13121ef85cc4405c04ca  src/or/routerset.c\n"
"907d9d2810d111f4d3606caada6b910ff8271c2f  src/or/statefile.c\n"
"d39125d8222178b485bc0bb0c6137ac68384a3d9  src/or/status.c\n"
"809607a6c7df43164371f27adee4b2889268bab4  src/or/Paradime.cpp\n"
"5533f7d49dfaa3dfb2bf230e22cb149fa403897c  src/or/onion_ntor.c\n"
"48ea4f809cf6b7738d5cfe9b64ee685f35552943  src/or/config_codedigest.c\n"
"63a5a6a1ab1809f88fd2c4bc296a6f69c1ef868e  src/or/addressmap.h\n"
"c78d0672ca6c6af973837f60952375caf3e44f32  src/or/buffers.h\n"
"1a58ef361dd56134863cb559375c0c7b276ddad2  src/or/channel.h\n"
"9bedc13da7a1844e6faf7a66dd1cc04463b2a4ce  src/or/channeltls.h\n"
"ff3a5693416ccf243f608a7bb943a078418c16d8  src/or/circpathbias.h\n"
"888b2baa34d7ac6256484c8bba833600e11380e2  src/or/circuitbuild.h\n"
"ef5c568c3d2afe2ac4fafbc916fbd5bcaf9549ae  src/or/circuitlist.h\n"
"d3d5bc76466470275f95f4496784fd6df8448f42  src/or/circuitmux.h\n"
"db0d9ba7153d05561239701002d286a1690ac761  src/or/circuitmux_ewma.h\n"
"5841bca9afe05cf47e250b61e63a7ecdd4aacfb0  src/or/circuitstats.h\n"
"3e7d60c902027551cb370135afd1048abed6ca7b  src/or/circuituse.h\n"
"8a419c2a26581c1abe28ff3622526824d9530488  src/or/command.h\n"
"6dcfbc668bdbb2a7937cbbb412dbda9a3e33f974  src/or/config.h\n"
"ea544b8d0426f349d150930144581dffc7cd14c8  src/or/confparse.h\n"
"8a6734ac90158ff17fd4984b6282c523bdb2348a  src/or/connection.h\n"
"22ad4a23108c8b93e66a86abb72183d5fd0f2ba1  src/or/connection_edge.h\n"
"274f0f4a322c9289c156f022a7fb60fcc1c1c546  src/or/connection_or.h\n"
"cc68ca39ff86ca801f7fa940cacbb86fd7d8b81c  src/or/control.h\n"
"bd39684ad6c38bbb9f171c2cdbd7209198482a4d  src/or/cpuworker.h\n"
"c872c595b665cf98e32f7426eb638d1792825550  src/or/directory.h\n"
"edab8d7cdd672b3863d2e6d3d9a501bd1483c320  src/or/dirserv.h\n"
"3c7f1b89374f449b5274e3155987f574f19a6fd7  src/or/dirvote.h\n"
"6cb1fa72a8e143182af936ca5ab975bc2510c55d  src/or/dns.h\n"
"92a6d02b37ccae143cead903d75856e9c1496528  src/or/dnsserv.h\n"
"126556a98b9839bf4d9584e1282926ce6793f1e9  src/or/eventdns_tor.h\n"
"5f64cde2302c3ef0a2ba48f7fe7e56af1bc1ba64  src/or/ext_orport.h\n"
"56ab7d66d989746dab1fdb5fb59bc9d43315a606  src/or/fp_pair.h\n"
"43128fc11249480ab0c14c11cdf5cd32b5dcf010  src/or/geoip.h\n"
"60efe5a221cef762dde349ca855935b3648d8564  src/or/entrynodes.h\n"
"3020153dc61f17dc4a8a402d5c87e656f8be07e9  src/or/hibernate.h\n"
"7c0dc83691463b6564edf492cb7ae284d3d46dba  src/or/onion_main.h\n"
"53546547b5f37dac1e70fb176c1ff2251d5fe736  src/or/microdesc.h\n"
"d438fa81e6c8338d05de94dea37fc5ed023fde80  src/or/networkstatus.h\n"
"d4dfe30ea516b49efb4698932c98ffb71982e07d  src/or/nodelist.h\n"
"f1f1db751507b175587da75a16a483fc4fa76a88  src/or/ntmain.h\n"
"7f6d71c21ff45f3a2dc36b7eabcb15d2a8a34c57  src/or/onion.h\n"
"33245d34d6bfbc6c8c700264318c5a594716b5d8  src/or/onion_fast.h\n"
"e0ccc9ed34e5f206f5ea57847c4e41a19f7ad2b3  src/or/onion_ntor.h\n"
"485bf9e2effe89a3f41b28fbd9d80a57ce339cbf  src/or/onion_tap.h\n"
"73b76ea94157f91c25b0d0de0ae6b849ae718ce5  src/or/or.h\n"
"c3988eae2f1661d29feb9b6d4fc98844423b399d  src/or/transports.h\n"
"03dc38b7773b45bbd8203b677cfbc776b0c0b6b7  src/or/policies.h\n"
"6c1ba5ba5bd533a430aec62fd8843fb517be204a  src/or/Paradime.h\n"
"c492ec75acc2dd3365d79b1c72f350aabdc03196  src/or/reasons.h\n"
"96c2a5773108690855eaf2846b62d2a6db49e0ff  src/or/relay.h\n"
"478409fbaa11d514985dba23b0ab4da71a4e2d97  src/or/rendclient.h\n"
"0ea91df7f1f517b6a50e8568c359e84f7be8c04a  src/or/rendcommon.h\n"
"c0ec958def76704f5735d71c6848d0f229db27b3  src/or/rendmid.h\n"
"d5a224d7940b6ff938c4e8336106e24b5ca5756b  src/or/rendservice.h\n"
"fac88cddeda839dc593b037f96f789dd28709ee2  src/or/rephist.h\n"
"72c264bcc3370bf71d004fef70f71ee1191fcbf6  src/or/replaycache.h\n"
"e52dbb07178b60712942a128198c949836c658b7  src/or/router.h\n"
"15d590536a54497244b77f60b01843ca9df247f2  src/or/routerlist.h\n"
"ac098125b79f6fba41a58b498811f60c852d562b  src/or/routerset.h\n"
"18d38445e8d21da51e09a01bebed58aac40eca2f  src/or/routerparse.h\n"
"fc3c214ece4640cce33fecb14900570a247dce5a  src/or/statefile.h\n"
"1cec9dc4fff60b5569944a81db1b20e6d00066c0  src/or/status.h\n"
